{
	"info": {
		"_postman_id": "57d680be-4f0e-4e42-bb99-bc4444dd1c01",
		"name": "seguradora",
		"schema": "https://schema.getpostman.com/json/collection/v2.0.0/collection.json"
	},
	"item": [
		{
			"name": "testes",
			"item": [
				{
					"name": "salvarEstado Copy",
					"request": {
						"method": "POST",
						"header": [
							{
								"key": "Content-Type",
								"name": "Content-Type",
								"type": "text",
								"value": "application/json"
							}
						],
						"body": {
							"mode": "raw",
							"raw": "{\n\t\"nome\": \"Rio Grande do Sul\"\n}"
						},
						"url": "http://localhost:8080/api/estado/salvar"
					},
					"response": []
				},
				{
					"name": "salvarCidade Copy",
					"request": {
						"method": "POST",
						"header": [
							{
								"key": "Content-Type",
								"name": "Content-Type",
								"type": "text",
								"value": "application/json"
							}
						],
						"body": {
							"mode": "raw",
							"raw": "{\n\t\"nome\": \"Porto Alegre\",\n\t\"estado\": {\n\t\t\"id\": 1\n\t}\n}"
						},
						"url": "http://localhost:8080/api/cidade/salvar"
					},
					"response": []
				},
				{
					"name": "salvarBairro Copy",
					"request": {
						"method": "POST",
						"header": [
							{
								"key": "Content-Type",
								"name": "Content-Type",
								"type": "text",
								"value": "application/json"
							}
						],
						"body": {
							"mode": "raw",
							"raw": "{\n\t\"nome\": \"Passo da Areia\",\n\t\"cidade\": {\n\t\t\"id\": 1\n\t}\n}"
						},
						"url": "http://localhost:8080/api/bairro/salvar"
					},
					"response": []
				},
				{
					"name": "salvarEndereco Copy",
					"request": {
						"method": "POST",
						"header": [
							{
								"key": "Content-Type",
								"name": "Content-Type",
								"type": "text",
								"value": "application/json"
							}
						],
						"body": {
							"mode": "raw",
							"raw": "{\n\t\"logradouro\": \"Rua Andaraí\",\n\t\"numero\": 531,\n\t\"bairro\": {\n\t\t\"id\": 1\n\t}\n}"
						},
						"url": "http://localhost:8080/api/endereco/salvar"
					},
					"response": []
				},
				{
					"name": "salvarEndereco2 Copy",
					"request": {
						"method": "POST",
						"header": [
							{
								"key": "Content-Type",
								"name": "Content-Type",
								"type": "text",
								"value": "application/json"
							}
						],
						"body": {
							"mode": "raw",
							"raw": "{\n\t\"logradouro\": \"Rua Machado\",\n\t\"numero\": 261,\n\t\"bairro\": {\n\t\t\"id\": 1\n\t}\n}"
						},
						"url": "http://localhost:8080/api/endereco/salvar"
					},
					"response": []
				},
				{
					"name": "salvarSegurado Copy",
					"request": {
						"method": "POST",
						"header": [
							{
								"key": "Content-Type",
								"name": "Content-Type",
								"type": "text",
								"value": "application/json"
							}
						],
						"body": {
							"mode": "raw",
							"raw": "{\n\t\"nome\": \"Nome do Segurado\",\n\t\"cpf\": \"cpf0000\",\n\t\"pai\": \"Pai do Segurado\",\n\t\"mae\": \"Mae do Segurado\",\n\t\"telefone\": \"33223232\",\n\t\"email\": \"iajhsijasij@gmail.com\",\n\t\"enderecos\": [ { \"id\": 1 } ],\n\t\"qtdServicos\": 0\n}"
						},
						"url": "http://localhost:8080/api/segurado/salvar"
					},
					"response": []
				},
				{
					"name": "salvarCorretor Copy",
					"request": {
						"method": "POST",
						"header": [
							{
								"key": "Content-Type",
								"name": "Content-Type",
								"value": "application/json",
								"type": "text"
							}
						],
						"body": {
							"mode": "raw",
							"raw": "{\n\t\"nome\": \"Nome do Corretor\",\n\t\"cpf\": \"cpf6556\",\n\t\"pai\": \"Pai do Corretor\",\n\t\"mae\": \"Mae do Corretor\",\n\t\"telefone\": \"16546565\",\n\t\"email\": \"okokokod@gmail.com\",\n\t\"enderecos\": [ { \"id\": 2 } ],\n\t\"cargo\": \"corretor de servicos\",\n\t\"comissao\": 5.2\n\t\n}"
						},
						"url": "http://localhost:8080/api/corretor/salvar"
					},
					"response": []
				},
				{
					"name": "salvarEnderecoSeguradora Copy",
					"request": {
						"method": "POST",
						"header": [
							{
								"key": "Content-Type",
								"name": "Content-Type",
								"type": "text",
								"value": "application/json"
							}
						],
						"body": {
							"mode": "raw",
							"raw": "{\n\t\"logradouro\": \"Av. Farrapos\",\n\t\"numero\": 8856,\n\t\"bairro\": {\n\t\t\"id\": 1\n\t}\n}"
						},
						"url": "http://localhost:8080/api/endereco/seguradora/salvar"
					},
					"response": []
				},
				{
					"name": "salvarSeguradora Copy",
					"request": {
						"method": "POST",
						"header": [
							{
								"key": "Content-Type",
								"name": "Content-Type",
								"type": "text",
								"value": "application/json"
							}
						],
						"body": {
							"mode": "raw",
							"raw": "{\n\t\"nome\": \"TopSafe\",\n\t\"cnpj\": \"000111222333344\",\n\t\"enderecoSeguradora\": { \"id\": 3 }\n}"
						},
						"url": "http://localhost:8080/api/seguradora/salvar"
					},
					"response": []
				},
				{
					"name": "salvarServico Copy",
					"request": {
						"auth": {
							"type": "bearer",
							"bearer": {
								"token": "eyJhbGciOiJIUzUxMiJ9.eyJzdWIiOiJhZG1pbiIsImV4cCI6MTU1NDY2MzgzNn0.BcGFNK2PPdYnnArTsxYCldNx6f1E8fxuD4EtqBU1xs2PYrj1ZjhG1B5eX4dsP7GvVB-BuxnsE4A334VNalBqPA"
							}
						},
						"method": "POST",
						"header": [
							{
								"key": "Content-Type",
								"name": "Content-Type",
								"type": "text",
								"value": "application/json"
							}
						],
						"body": {
							"mode": "raw",
							"raw": "{\n\t\"nome\": \"Serviço de Teste\",\n\t\"descricao\": \"Venda\",\n\t\"valorPadrao\": 50.00,\n\t\"seguradoras\": [ { \"id\": 1 } ]\n}"
						},
						"url": "http://localhost:8080/api/servico/salvar"
					},
					"response": []
				},
				{
					"name": "salvarServicoContratado Copy",
					"request": {
						"auth": {
							"type": "bearer",
							"bearer": {
								"token": "eyJhbGciOiJIUzUxMiJ9.eyJzdWIiOiJhZG1pbiIsImV4cCI6MTU1NDY2MzgzNn0.BcGFNK2PPdYnnArTsxYCldNx6f1E8fxuD4EtqBU1xs2PYrj1ZjhG1B5eX4dsP7GvVB-BuxnsE4A334VNalBqPA"
							}
						},
						"method": "POST",
						"header": [
							{
								"key": "Content-Type",
								"name": "Content-Type",
								"value": "application/json",
								"type": "text"
							}
						],
						"body": {
							"mode": "raw",
							"raw": "{\n\t\"descricao\": \"Servico Contratado teste\",\n\t\"valor\": 300.0,\n\t\"servico\": { \"id\": 1 },\n\t\"seguradora\": { \"id\": 1 },\n\t\"segurado\": { \"id\": 1 },\n\t\"corretor\": { \"id\": 2 }\n}"
						},
						"url": "http://localhost:8080/api/servico/contratados/salvar"
					},
					"response": []
				}
			]
		},
		{
			"name": "estado",
			"item": [
				{
					"name": "salvarEstado",
					"request": {
						"method": "POST",
						"header": [
							{
								"key": "Content-Type",
								"name": "Content-Type",
								"type": "text",
								"value": "application/json"
							}
						],
						"body": {
							"mode": "raw",
							"raw": "{\n\t\"nome\": \"Rio Grande do Sul\"\n}"
						},
						"url": "http://localhost:8080/api/estado/salvar"
					},
					"response": []
				},
				{
					"name": "listarEstados",
					"protocolProfileBehavior": {
						"disableBodyPruning": true
					},
					"request": {
						"method": "GET",
						"header": [
							{
								"key": "Content-Type",
								"name": "Content-Type",
								"type": "text",
								"value": "application/json"
							}
						],
						"body": {
							"mode": "raw",
							"raw": ""
						},
						"url": "http://localhost:8080/api/estado/"
					},
					"response": []
				}
			]
		},
		{
			"name": "cidade",
			"item": [
				{
					"name": "salvarCidade",
					"request": {
						"method": "POST",
						"header": [
							{
								"key": "Content-Type",
								"name": "Content-Type",
								"type": "text",
								"value": "application/json"
							}
						],
						"body": {
							"mode": "raw",
							"raw": "{\n\t\"nome\": \"Porto Alegre\",\n\t\"estado\": {\n\t\t\"id\": 1\n\t}\n}"
						},
						"url": "http://localhost:8080/api/cidade/salvar"
					},
					"response": []
				},
				{
					"name": "listarCidades",
					"protocolProfileBehavior": {
						"disableBodyPruning": true
					},
					"request": {
						"method": "GET",
						"header": [
							{
								"key": "Content-Type",
								"name": "Content-Type",
								"value": "application/json",
								"type": "text"
							}
						],
						"body": {
							"mode": "raw",
							"raw": ""
						},
						"url": "http://localhost:8080/api/cidade/"
					},
					"response": []
				}
			]
		},
		{
			"name": "bairro",
			"item": [
				{
					"name": "salvarBairro",
					"request": {
						"method": "POST",
						"header": [
							{
								"key": "Content-Type",
								"name": "Content-Type",
								"type": "text",
								"value": "application/json"
							}
						],
						"body": {
							"mode": "raw",
							"raw": "{\n\t\"nome\": \"Passo da Areia\",\n\t\"cidade\": {\n\t\t\"id\": 1\n\t}\n}"
						},
						"url": "http://localhost:8080/api/bairro/salvar"
					},
					"response": []
				},
				{
					"name": "listarBairros",
					"protocolProfileBehavior": {
						"disableBodyPruning": true
					},
					"request": {
						"method": "GET",
						"header": [
							{
								"key": "Content-Type",
								"name": "Content-Type",
								"value": "application/json",
								"type": "text"
							}
						],
						"body": {
							"mode": "raw",
							"raw": ""
						},
						"url": "http://localhost:8080/api/bairro/"
					},
					"response": []
				}
			]
		},
		{
			"name": "endereco",
			"item": [
				{
					"name": "salvarEndereco",
					"request": {
						"method": "POST",
						"header": [
							{
								"key": "Content-Type",
								"name": "Content-Type",
								"type": "text",
								"value": "application/json"
							}
						],
						"body": {
							"mode": "raw",
							"raw": "{\n\t\"logradouro\": \"Rua Andaraí\",\n\t\"numero\": 531,\n\t\"bairro\": {\n\t\t\"id\": 1\n\t}\n}"
						},
						"url": "http://localhost:8080/api/endereco/salvar"
					},
					"response": []
				},
				{
					"name": "salvarEndereco2",
					"request": {
						"method": "POST",
						"header": [
							{
								"key": "Content-Type",
								"name": "Content-Type",
								"type": "text",
								"value": "application/json"
							}
						],
						"body": {
							"mode": "raw",
							"raw": "{\n\t\"logradouro\": \"Rua Machado\",\n\t\"numero\": 261,\n\t\"bairro\": {\n\t\t\"id\": 1\n\t}\n}"
						},
						"url": "http://localhost:8080/api/endereco/salvar"
					},
					"response": []
				},
				{
					"name": "listarEnderecos",
					"protocolProfileBehavior": {
						"disableBodyPruning": true
					},
					"request": {
						"method": "GET",
						"header": [
							{
								"key": "Content-Type",
								"name": "Content-Type",
								"value": "application/json",
								"type": "text"
							}
						],
						"body": {
							"mode": "raw",
							"raw": ""
						},
						"url": "http://localhost:8080/api/endereco/"
					},
					"response": []
				}
			]
		},
		{
			"name": "segurado",
			"item": [
				{
					"name": "salvarSegurado",
					"request": {
						"method": "POST",
						"header": [
							{
								"key": "Content-Type",
								"name": "Content-Type",
								"value": "application/json",
								"type": "text"
							}
						],
						"body": {
							"mode": "raw",
							"raw": "{\n\t\"nome\": \"Nome do Segurado\",\n\t\"cpf\": \"cpf0000\",\n\t\"pai\": \"Pai do Segurado\",\n\t\"mae\": \"Mae do Segurado\",\n\t\"telefone\": \"33223232\",\n\t\"email\": \"iajhsijasij@gmail.com\",\n\t\"qtdServicos\": 0,\n\t\"enderecos\": [ { \"id\": 1 } ]\n}"
						},
						"url": "http://localhost:8080/api/segurado/salvar"
					},
					"response": []
				},
				{
					"name": "listarSegurados",
					"protocolProfileBehavior": {
						"disableBodyPruning": true
					},
					"request": {
						"method": "GET",
						"header": [
							{
								"key": "Content-Type",
								"name": "Content-Type",
								"value": "application/json",
								"type": "text"
							}
						],
						"body": {
							"mode": "raw",
							"raw": ""
						},
						"url": "http://localhost:8080/api/segurado/"
					},
					"response": []
				}
			]
		},
		{
			"name": "corretor",
			"item": [
				{
					"name": "salvarCorretor",
					"request": {
						"method": "POST",
						"header": [
							{
								"key": "Content-Type",
								"name": "Content-Type",
								"value": "application/json",
								"type": "text"
							}
						],
						"body": {
							"mode": "raw",
							"raw": "{\n\t\"nome\": \"Nome do Corretor\",\n\t\"cpf\": \"cpf6556\",\n\t\"pai\": \"Pai do Corretor\",\n\t\"mae\": \"Mae do Corretor\",\n\t\"telefone\": \"16546565\",\n\t\"email\": \"okokokod@gmail.com\",\n\t\"enderecos\": [ { \"id\": 2 } ],\n\t\"cargo\": \"corretor de servicos\",\n\t\"comissao\": 5.2\n\t\n}"
						},
						"url": "http://localhost:8080/api/corretor/salvar"
					},
					"response": []
				},
				{
					"name": "listarCorretores",
					"protocolProfileBehavior": {
						"disableBodyPruning": true
					},
					"request": {
						"method": "GET",
						"header": [
							{
								"key": "Content-Type",
								"name": "Content-Type",
								"value": "application/json",
								"type": "text"
							}
						],
						"body": {
							"mode": "raw",
							"raw": ""
						},
						"url": "http://localhost:8080/api/corretor/"
					},
					"response": []
				}
			]
		},
		{
			"name": "enderecoSeguradora",
			"item": [
				{
					"name": "salvarEnderecoSeguradora",
					"request": {
						"method": "POST",
						"header": [
							{
								"key": "Content-Type",
								"name": "Content-Type",
								"type": "text",
								"value": "application/json"
							}
						],
						"body": {
							"mode": "raw",
							"raw": "{\n\t\"logradouro\": \"Av. Farrapos\",\n\t\"numero\": 8856,\n\t\"bairro\": {\n\t\t\"id\": 1\n\t}\n}"
						},
						"url": "http://localhost:8080/api/endereco/seguradora/salvar"
					},
					"response": []
				},
				{
					"name": "listarEnderecoSeguradoras",
					"protocolProfileBehavior": {
						"disableBodyPruning": true
					},
					"request": {
						"method": "GET",
						"header": [
							{
								"key": "Content-Type",
								"name": "Content-Type",
								"value": "application/json",
								"type": "text"
							}
						],
						"body": {
							"mode": "raw",
							"raw": ""
						},
						"url": "http://localhost:8080/api/endereco/seguradora/"
					},
					"response": []
				}
			]
		},
		{
			"name": "seguradora",
			"item": [
				{
					"name": "salvarSeguradora",
					"request": {
						"method": "POST",
						"header": [
							{
								"key": "Content-Type",
								"name": "Content-Type",
								"type": "text",
								"value": "application/json"
							}
						],
						"body": {
							"mode": "raw",
							"raw": "{\n\t\"nome\": \"TopSafe\",\n\t\"cnpj\": \"000111222333344\",\n\t\"enderecoSeguradora\": { \"id\": 3 }\n}"
						},
						"url": "http://localhost:8080/api/seguradora/salvar"
					},
					"response": []
				},
				{
					"name": "listarSeguradoras",
					"protocolProfileBehavior": {
						"disableBodyPruning": true
					},
					"request": {
						"method": "GET",
						"header": [
							{
								"key": "Content-Type",
								"name": "Content-Type",
								"value": "application/json",
								"type": "text"
							}
						],
						"body": {
							"mode": "raw",
							"raw": ""
						},
						"url": "http://localhost:8080/api/seguradora/"
					},
					"response": []
				},
				{
					"name": "editarSeguradora",
					"request": {
						"method": "PUT",
						"header": [
							{
								"key": "Content-Type",
								"name": "Content-Type",
								"value": "application/json",
								"type": "text"
							}
						],
						"body": {
							"mode": "raw",
							"raw": "{\n\t\"enderecoSeguradora\": { \"id\": 1 }\t\n}"
						},
						"url": "http://localhost:8080/api/seguradora/editar/1"
					},
					"response": []
				}
			]
		},
		{
			"name": "login",
			"item": [
				{
					"name": "login",
					"request": {
						"method": "POST",
						"header": [
							{
								"key": "Content-Type",
								"name": "Content-Type",
								"value": "application/json",
								"type": "text"
							}
						],
						"body": {
							"mode": "raw",
							"raw": "{\n\t\"username\": \"admin\",\n\t\"password\": \"password\"\n}"
						},
						"url": "http://localhost:8080/login"
					},
					"response": []
				}
			]
		},
		{
			"name": "servicos",
			"item": [
				{
					"name": "salvarServico",
					"request": {
						"auth": {
							"type": "bearer",
							"bearer": {
								"token": "eyJhbGciOiJIUzUxMiJ9.eyJzdWIiOiJhZG1pbiIsImV4cCI6MTU1NDY2MzgzNn0.BcGFNK2PPdYnnArTsxYCldNx6f1E8fxuD4EtqBU1xs2PYrj1ZjhG1B5eX4dsP7GvVB-BuxnsE4A334VNalBqPA"
							}
						},
						"method": "POST",
						"header": [
							{
								"key": "Content-Type",
								"name": "Content-Type",
								"type": "text",
								"value": "application/json"
							}
						],
						"body": {
							"mode": "raw",
							"raw": "{\n\t\"nome\": \"Serviço de Teste\",\n\t\"descricao\": \"Venda\",\n\t\"valorPadrao\": 50.00,\n\t\"seguradoras\": [ { \"id\": 1 } ]\n}"
						},
						"url": "http://localhost:8080/api/servico/salvar"
					},
					"response": []
				},
				{
					"name": "listarServicos",
					"protocolProfileBehavior": {
						"disableBodyPruning": true
					},
					"request": {
						"auth": {
							"type": "bearer",
							"bearer": {
								"token": "eyJhbGciOiJIUzUxMiJ9.eyJzdWIiOiJhZG1pbiIsImV4cCI6MTU1NDY2MzgzNn0.BcGFNK2PPdYnnArTsxYCldNx6f1E8fxuD4EtqBU1xs2PYrj1ZjhG1B5eX4dsP7GvVB-BuxnsE4A334VNalBqPA"
							}
						},
						"method": "GET",
						"header": [
							{
								"key": "Content-Type",
								"name": "Content-Type",
								"type": "text",
								"value": "application/json"
							}
						],
						"body": {
							"mode": "raw",
							"raw": ""
						},
						"url": "http://localhost:8080/api/servico/"
					},
					"response": []
				}
			]
		},
		{
			"name": "servicoContratado",
			"item": [
				{
					"name": "salvarServicoContratado",
					"request": {
						"method": "POST",
						"header": [
							{
								"key": "Content-Type",
								"name": "Content-Type",
								"value": "application/json",
								"type": "text"
							}
						],
						"body": {
							"mode": "raw",
							"raw": ""
						},
						"url": "http://localhost:8080/api/servico/contratados/salvar"
					},
					"response": []
				},
				{
					"name": "listarServicosContratados",
					"protocolProfileBehavior": {
						"disableBodyPruning": true
					},
					"request": {
						"method": "GET",
						"header": [
							{
								"key": "Content-Type",
								"name": "Content-Type",
								"value": "application/json",
								"type": "text"
							}
						],
						"body": {
							"mode": "raw",
							"raw": ""
						},
						"url": "http://localhost:8080/api/servico/contratados/"
					},
					"response": []
				}
			]
		}
	]
}